{
  "kind": "collectionType",
  "connection": "default",
  "collectionName": "comments",
  "info": {
    "name": "comments"
  },
  "options": {
    "increments": true,
    "timestamps": true
  },
  "attributes": {
    "username": {
      "type": "string"
    },
    "commentDateTime": {
      "type": "datetime"
    },
    "comment": {
      "type": "text"
    },
    "article": {
      "via": "comments",
      "model": "article"
    }
  }
}
